{
    "message":{
        "token":"bk3RNwTe3H0:CI2k_HHwgIpoDKCIZvvDMExUdFQ3P1...",
        "android":{
            "notification":{
                "body_loc_key": "PUSH_NOTIFICATION_*",
                "body_loc_args": ["", ""],
                "title_loc_key": "PUSH_NOTIFICATION_*"
                "title_loc_args": ["", ""]
            }
        },
        "apns": {
            "payload": {
                "aps": {
                    "alert": {
                        "loc-key": "PUSH_NOTIFICATION_*",
                        "loc-args": ["", ""],
                        "title-loc-key": "PUSH_NOTIFICATION_*",
                        "title-loc-args": ["", ""]
                    }
                }
            }
        }
    }
}
